<?xml version="1.0" encoding="UTF-8" standalone="no"?>
<!-- Created with Inkscape (http://www.inkscape.org/) -->

<svg
   xmlns:dc="http://purl.org/dc/elements/1.1/"
   xmlns:cc="http://creativecommons.org/ns#"
   xmlns:rdf="http://www.w3.org/1999/02/22-rdf-syntax-ns#"
   xmlns:svg="http://www.w3.org/2000/svg"
   xmlns="http://www.w3.org/2000/svg"
   xmlns:sodipodi="http://sodipodi.sourceforge.net/DTD/sodipodi-0.dtd"
   xmlns:inkscape="http://www.inkscape.org/namespaces/inkscape"
   id="svg2527"
   height="48"
   width="48"
   version="1.0"
   inkscape:version="0.48.4 r9939"
   sodipodi:docname="function.svg">
  <metadata
     id="metadata23">
    <rdf:RDF>
      <cc:Work
         rdf:about="">
        <dc:format>image/svg+xml</dc:format>
        <dc:type
           rdf:resource="http://purl.org/dc/dcmitype/StillImage" />
        <dc:title></dc:title>
      </cc:Work>
    </rdf:RDF>
  </metadata>
  <sodipodi:namedview
     pagecolor="#ffffff"
     bordercolor="#666666"
     borderopacity="1"
     objecttolerance="10"
     gridtolerance="10"
     guidetolerance="10"
     inkscape:pageopacity="0"
     inkscape:pageshadow="2"
     inkscape:window-width="640"
     inkscape:window-height="480"
     id="namedview21"
     showgrid="false"
     inkscape:zoom="4.9166667"
     inkscape:cx="24"
     inkscape:cy="24"
     inkscape:window-x="494"
     inkscape:window-y="27"
     inkscape:window-maximized="0"
     inkscape:current-layer="svg2527" />
  <defs
     id="defs2529">
    <radialGradient
       id="radialGradient2436"
       gradientUnits="userSpaceOnUse"
       cy="4.625"
       cx="62.625"
       gradientTransform="matrix(2.1647 0 0 .75294 -111.56 36.518)"
       r="10.625">
      <stop
         id="stop8840"
         offset="0" />
      <stop
         id="stop8842"
         style="stop-opacity:0"
         offset="1" />
    </radialGradient>
    <linearGradient
       id="linearGradient2517"
       y2="45"
       gradientUnits="userSpaceOnUse"
       x2="37.201"
       y1="1"
       x1="37.201">
      <stop
         id="stop3399"
         style="stop-color:#aaa"
         offset="0" />
      <stop
         id="stop3401"
         style="stop-color:#8c8c8c"
         offset="1" />
    </linearGradient>
    <linearGradient
       id="linearGradient2515"
       y2="45.017"
       gradientUnits="userSpaceOnUse"
       x2="20.759"
       y1="1"
       x1="20.759">
      <stop
         id="stop3311"
         style="stop-color:#f6f6f6"
         offset="0" />
      <stop
         id="stop3313"
         style="stop-color:#d2d2d2"
         offset="1" />
    </linearGradient>
    <linearGradient
       id="linearGradient2512"
       y2="20.895"
       gradientUnits="userSpaceOnUse"
       x2="84.639"
       gradientTransform="matrix(.32448 0 0 .32448 3.2333 2.5577)"
       y1="105.1"
       x1="86.133">
      <stop
         id="stop5130"
         style="stop-color:#e5e5e5"
         offset="0" />
      <stop
         id="stop5132"
         style="stop-color:#ababab"
         offset="1" />
    </linearGradient>
    <linearGradient
       x1="15"
       y1="1"
       x2="15"
       gradientUnits="userSpaceOnUse"
       y2="31.067"
       id="linearGradient3255">
      <stop
         offset="0"
         style="stop-color:#fff"
         id="stop3247" />
      <stop
         offset="1"
         style="stop-color:#fff;stop-opacity:0"
         id="stop3249" />
    </linearGradient>
    <linearGradient
       x1="24.104"
       y1="15.181"
       gradientTransform="matrix(1.372,0,0,1.3637,-16.76,-15.39)"
       x2="24.104"
       gradientUnits="userSpaceOnUse"
       y2="34.225"
       id="linearGradient2452">
      <stop
         offset="0"
         style="stop-color:#d7e866"
         id="stop2266" />
      <stop
         offset="1"
         style="stop-color:#8cab2a"
         id="stop2268" />
    </linearGradient>
    <radialGradient
       r="10.625"
       gradientTransform="matrix(1.5059,0,0,0.37647,-78.306,26.259)"
       cx="62.625"
       cy="4.625"
       gradientUnits="userSpaceOnUse"
       id="radialGradient2469">
      <stop
         offset="0"
         id="stop8840-4" />
      <stop
         offset="1"
         style="stop-opacity:0"
         id="stop8842-4" />
    </radialGradient>
  </defs>
  <g
     id="layer1">
    <path
       id="path8836"
       style="opacity:.3;fill-rule:evenodd;fill:url(#radialGradient2436)"
       d="m47 40c0 4.4183-10.297 8-23 8s-23-3.5817-23-8 10.297-8 23-8 23 3.5817 23 8z" />
    <path
       id="rect3267"
       style="stroke-linejoin:round;stroke:url(#linearGradient2517);display:block;fill:url(#linearGradient2515)"
       d="m21.031 1.5c-0.846 0-1.531 0.7019-1.531 1.5625v3.0312c-1.513 0.4032-2.959 1.012-4.281 1.7813l-2.157-2.1562c-0.304-0.3043-0.668-0.4655-1.062-0.4688s-0.795 0.1383-1.094 0.4375l-4.2185 4.2187c-0.5983 0.5988-0.5773 1.5478 0.0313 2.1558l2.1562 2.157c-0.7693 1.322-1.3781 2.768-1.7812 4.281h-3.0312c-0.8607 0-1.5626 0.685-1.5626 1.531v5.9375c0 0.847 0.7019 1.532 1.5625 1.532h3.0312c0.40311 1.5129 1.012 2.9586 1.7812 4.2812l-2.1561 2.157c-0.6086 0.608-0.6296 1.557-0.0313 2.156l4.2188 4.2188c0.5983 0.5983 1.5477 0.57728 2.1562-0.03125l2.157-2.157c1.3227 0.76926 2.7683 1.3781 4.2812 1.7812v3.0312c0 0.86059 0.68512 1.5625 1.5312 1.5625h5.9375c0.847 0 1.532-0.702 1.532-1.562v-3.0312c1.5129-0.40311 2.9586-1.012 4.2812-1.7812l2.1562 2.1562c0.60853 0.60853 1.5579 0.62956 2.1562 0.03125l4.2188-4.2188c0.5983-0.5983 0.57728-1.5477-0.03125-2.1562l-2.156-2.157c0.769-1.322 1.378-2.768 1.781-4.281h3.0312c0.86059 0 1.5625-0.68512 1.5625-1.5312v-5.9375c0-0.847-0.702-1.532-1.562-1.532h-3.0312c-0.404-1.513-1.013-2.959-1.782-4.281l2.1562-2.1562c0.60853-0.60853 0.62956-1.5579 0.03125-2.1562l-4.218-4.2193c-0.599-0.5983-1.548-0.5773-2.156 0.0313l-2.157 2.1562c-1.322-0.7693-2.768-1.3781-4.281-1.7812v-3.0312c0-0.8607-0.685-1.5626-1.531-1.5626h-5.9375zm2.969 15c3.588 0 6.5 2.912 6.5 6.5s-2.912 6.5-6.5 6.5-6.5-2.912-6.5-6.5 2.912-6.5 6.5-6.5z" />
    <path
       id="path28"
       style="stroke:url(#linearGradient2512);fill:none"
       d="m24 9.5c-7.4439 0-13.5 6.0561-13.5 13.5s6.0561 13.5 13.5 13.5 13.5-6.0561 13.5-13.5c0-7.444-6.056-13.5-13.5-13.5z" />
    <path
       id="path3315"
       style="opacity:.05"
       d="m24 10c-7.1683-5e-7 -13 5.8317-13 13s5.8317 13 13 13c7.1683-0.000001 13-5.8317 13-13s-5.8317-13-13-13zm0 6c3.864 0 7 3.136 7 7s-3.136 7-7 7-7-3.136-7-7 3.136-7 7-7z" />
  </g>
  <g
     id="layer1-0"
     transform="matrix(0.73756151,0,0,0.73756151,25.143795,25.050574)">
    <path
       d="m 32,28 c 0,2.2091 -7.1634,4 -16,4 -8.8366,0 -16,-1.791 -16,-4 0,-2.2091 7.1634,-4 16,-4 8.8366,0 16,1.7909 16,4 z"
       style="opacity:0.3;fill:url(#radialGradient2469);fill-rule:evenodd"
       id="path8836-6"
       inkscape:connector-curvature="0" />
    <path
       d="m 10.5,10.5 v -9 h 11 v 9 h 9 v 11 h -9 v 9 h -11 v -9 h -9 v -11 h 9 z"
       style="fill:url(#linearGradient2452);fill-rule:evenodd;stroke:#699536;stroke-linejoin:round"
       id="path2262"
       inkscape:connector-curvature="0" />
    <path
       d="m 11.5,2.5 v 8 c -0.004,0.55062 -0.44938,0.99601 -1,1 h -8 v 9 h 8 c 0.55062,0.004 0.99601,0.44938 1,1 v 8 h 9 v -8 c 0.004,-0.55062 0.44938,-0.99601 1,-1 h 8 v -9 h -8 c -0.55062,-0.004 -0.99601,-0.44938 -1,-1 v -8 h -9 z"
       style="opacity:0.4;fill:none;stroke:url(#linearGradient3255)"
       id="path3253"
       inkscape:connector-curvature="0" />
  </g>
</svg>
